…
``` r
fileXML <- xmlToList(system.file("extdata", "MaMuT_Parhyale_demo-mamut.xml", package = "mamut2r"))
```

### Getting information relative to either nuclei (= spots) or lineages (=tracks)

The MaMuT .xml file stores two type of objects, under two types of tags: the spots and the tracks. In the case of the study of the development of an organ, spots usually refer to nuclei and tracks to cell lineages. Here, Spots.as.dataframe() and Tracks.as.dataframe() extract information from the .xml file and format them as dataframes (more precisely as tibbles).

Information regarding the spots (x, y, z location, ID...) are extracted using the Spots.as.dataframe and stored in a tibble.

``` r
Spots_df <- Spots.as.dataframe(fileXML)
Spots_df
#> # A tibble: 441 x 11
#>       ID name   VISIBILITY RADIUS QUALITY SOURCE_ID POSITION_T POSITION_X
#>    <int> <chr>  <chr>       <dbl> <chr>   <chr>          <dbl>      <dbl>
#>  1  2115 ID2115 1            14.6 -1.0    0                  0       834.
#>  2  3077 ID3077 1            14.6 -1.0    0                  0       788.
#>  3  1542 ID1542 1            14.6 -1.0    0                  0       865.
#>  4  3398 ID3398 1            14.6 -1.0    0                  0       945.
#>  5  2569 ID2569 1            14.6 -1.0    0                  0       888.
#>  6  1930 ID1930 1            14.6 -1.0    0                  0       836.
#>  7  2956 ID2956 1            14.6 -1.0    0                  0       788.
#>  8  3597 ID3597 1            14.6 -1.0    0                  0      1086.
#>  9   337 ID337  1            14.6 -1.0    0                  0      1046.
#> 10  3025 ID3025 1            14.6 -1.0    0                  0       817.
#> # ... with 431 more rows, and 3 more variables: POSITION_Y <dbl>,
#> #   FRAME <chr>, POSITION_Z <dbl>
```

Information regarding the tracks (ID of source and target spots, track ID...) are extracted using the Tracks.as.dataframe and stored in a tibble.

``` r
Tracks_df <- Tracks.as.dataframe(fileXML)
Tracks_df
#> # A tibble: 400 x 8
#>    SPOT_SOURCE_ID SPOT_TARGET_ID LINK_COST          VELOCITY DISPLACEMENT
#>             <int>          <int> <chr>                 <dbl>        <dbl>
#>  1            135            142 103.63464237882181     5.81         5.81
#>  2            179            182 -1.0                  18.6         18.6 
#>  3            183            184 -1.0                  14.6         14.6 
#>  4            182            183 -1.0                  14.6         14.6 
#>  5            142            179 -1.0                   7.20         7.20
#>  6            122            129 29.60479765257005      4.11         4.11
#>  7             96            116 42.207383550507046     2.55         2.55
#>  8            116            122 52.233971842280646     5.70         5.70
#>  9            129            135 30.785953362464525     3.60         3.60
#> 10            215            222 56.267814644478335    14.7         14.7 
#> # ... with 390 more rows, and 3 more variables: TRACK_NAME <chr>,
#> #   TRACK_ID <chr>, TRACK_INDEX <chr>
```

### Checking tracks

Tracks are composed of nodes (the spots) and edges (between the spots). Source and target spots are respectively the origin and the end of an edge between two timepoints. checkTrack() checks the orientation of edges and ensure to always have the source spot in an earlier timepoint than the target spot. This is necessary for plotting the lineage trees afterwards with {ggraph}.

``` r
Tracks_df <- checkTrack(Tracks_df, Spots_df)
Tracks_df
#> # A tibble: 400 x 10
#>    SPOT_SOURCE_ID SPOT_TARGET_ID LINK_COST          VELOCITY DISPLACEMENT
#>             <int>          <int> <chr>                 <dbl>        <dbl>
#>  1            135            142 103.63464237882181     5.81         5.81
#>  2            179            182 -1.0                  18.6         18.6 
#>  3            183            184 -1.0                  14.6         14.6 
#>  4            182            183 -1.0                  14.6         14.6 
#>  5            142            179 -1.0                   7.20         7.20
#>  6            122            129 29.60479765257005      4.11         4.11
#>  7             96            116 42.207383550507046     2.55         2.55
#>  8            116            122 52.233971842280646     5.70         5.70
#>  9            129            135 30.785953362464525     3.60         3.60
#> 10            215            222 56.267814644478335    14.7         14.7 
#> # ... with 390 more rows, and 5 more variables: TRACK_NAME <chr>,
#> #   TRACK_ID <chr>, TRACK_INDEX <chr>, SPOT_SOURCE_FRAME <dbl>,
#> #   SPOT_TARGET_FRAME <dbl>
```

### Merging spots and tracks information

Spots dataframes can be enriched with information coming from the tracks using spots.and.tracks().

``` r
Spots_Tracks <- spots.and.tracks(Spots_df, Tracks_df)
Spots_Tracks
#> # A tibble: 441 x 12
#>       ID name   VISIBILITY RADIUS QUALITY SOURCE_ID POSITION_T POSITION_X
#>    <int> <chr>  <chr>       <dbl> <chr>   <chr>          <dbl>      <dbl>
#>  1  2115 ID2115 1            14.6 -1.0    0                  0       834.
#>  2  3077 ID3077 1            14.6 -1.0    0                  0       788.
#>  3  1542 ID1542 1            14.6 -1.0    0                  0       865.
#>  4  3398 ID3398 1            14.6 -1.0    0                  0       945.
#>  5  2569 ID2569 1            14.6 -1.0    0                  0       888.
#>  6  1930 ID1930 1            14.6 -1.0    0                  0       836.
#>  7  2956 ID2956 1            14.6 -1.0    0                  0       788.
#>  8  3597 ID3597 1            14.6 -1.0    0                  0      1086.
#>  9   337 ID337  1            14.6 -1.0    0                  0      1046.
#> 10  3025 ID3025 1            14.6 -1.0    0                  0       817.
#> # ... with 431 more rows, and 4 more variables: POSITION_Y <dbl>,
#> #   FRAME <chr>, POSITION_Z <dbl>, TRACK_ID <chr>
```
…
