Fluorescence intensity • mamut2r
…
  Spots_df %>% 
    mutate( prev = lag((!!meancol)) ) %>%
    mutate(diffFluo = (!!meancol) - prev)
}

Spots_df <- diffFluo(Spots_df, all_cells, meancol = meanFluo)

To calculate a mean and median fluorescence value per spot + calculate normalised fluorescence accross the whole movie, or for the current frame, all in one go, you can use the mmFluo_all() function.

mmFluo_all(Spots_df, all_cells)
#> Joining, by = c("name", "frame", "meanFluo", "medianFluo")
#> Warning: Column `name` joining character vector and factor, coercing into
#> character vector
#> Joining, by = c("FRAME", "meanFluo_perT", "medianFluo_perT")
#> # A tibble: 441 x 21
#>       ID name  VISIBILITY RADIUS QUALITY SOURCE_ID POSITION_T POSITION_X
#>    <int> <chr> <chr>       <dbl> <chr>   <chr>          <dbl>      <dbl>
#>  1  2115 ID21… 1            14.6 -1.0    0                  0       834.
#>  2  3077 ID30… 1            14.6 -1.0    0                  0       788.
#>  3  1542 ID15… 1            14.6 -1.0    0                  0       865.
#>  4  3398 ID33… 1            14.6 -1.0    0                  0       945.
#>  5  2569 ID25… 1            14.6 -1.0    0                  0       888.
#>  6  1930 ID19… 1            14.6 -1.0    0                  0       836.
#>  7  2956 ID29… 1            14.6 -1.0    0                  0       788.
#>  8  3597 ID35… 1            14.6 -1.0    0                  0      1086.
#>  9   337 ID337 1            14.6 -1.0    0                  0      1046.
#> 10  3025 ID30… 1            14.6 -1.0    0                  0       817.
#> # ... with 431 more rows, and 13 more variables: POSITION_Y <dbl>,
#> #   FRAME <chr>, POSITION_Z <dbl>, frame <fct>, meanFluo <dbl>,
#> #   medianFluo <int>, nb <int>, meanFluo_wholeMovie <dbl>,
#> #   medianFluo_wholeMovie <int>, meanFluo_perT <dbl>,
#> #   medianFluo_perT <dbl>, prev <dbl>, diffFluo <dbl>
…
